digraph Tree {
node [shape=box, style="filled, rounded", color="black", fontname=helvetica] ;
edge [fontname=helvetica] ;
0 [label="PromedioOtrosEmpleos <= 0.5\nentropy = 1.163\nsamples = 1596\nvalue = [1112, 160, 324]\nclass = CUMPLE EXPECTATIVAS", fillcolor="#e581399e"] ;
1 [label="CiudadNacimiento_1.0 <= 0.5\nentropy = 1.06\nsamples = 449\nvalue = [333, 78, 38]\nclass = CUMPLE EXPECTATIVAS", fillcolor="#e58139af"] ;
0 -> 1 [labeldistance=2.5, labelangle=45, headlabel="True"] ;
2 [label="HabilidadResponsabilidad <= 0.5\nentropy = 1.229\nsamples = 199\nvalue = [132, 45, 22]\nclass = CUMPLE EXPECTATIVAS", fillcolor="#e5813990"] ;
1 -> 2 ;
3 [label="entropy = 1.328\nsamples = 114\nvalue = [67, 34, 13]\nclass = CUMPLE EXPECTATIVAS", fillcolor="#e5813969"] ;
2 -> 3 ;
4 [label="entropy = 1.021\nsamples = 85\nvalue = [65, 11, 9]\nclass = CUMPLE EXPECTATIVAS", fillcolor="#e58139ba"] ;
2 -> 4 ;
5 [label="HabilidadLiderazgo <= 0.5\nentropy = 0.892\nsamples = 250\nvalue = [201, 33, 16]\nclass = CUMPLE EXPECTATIVAS", fillcolor="#e58139c5"] ;
1 -> 5 ;
6 [label="entropy = 0.944\nsamples = 211\nvalue = [165, 33, 13]\nclass = CUMPLE EXPECTATIVAS", fillcolor="#e58139bd"] ;
5 -> 6 ;
7 [label="entropy = 0.391\nsamples = 39\nvalue = [36, 0, 3]\nclass = CUMPLE EXPECTATIVAS", fillcolor="#e58139ea"] ;
5 -> 7 ;
8 [label="NivelMaximoEducacion <= 1.5\nentropy = 1.151\nsamples = 1147\nvalue = [779, 82, 286]\nclass = CUMPLE EXPECTATIVAS", fillcolor="#e5813992"] ;
0 -> 8 [labeldistance=2.5, labelangle=-45, headlabel="False"] ;
9 [label="Idiomas <= 2.5\nentropy = 1.079\nsamples = 906\nvalue = [660, 71, 175]\nclass = CUMPLE EXPECTATIVAS", fillcolor="#e58139a9"] ;
8 -> 9 ;
10 [label="entropy = 1.211\nsamples = 378\nvalue = [245, 31, 102]\nclass = CUMPLE EXPECTATIVAS", fillcolor="#e5813984"] ;
9 -> 10 ;
11 [label="entropy = 0.95\nsamples = 528\nvalue = [415, 40, 73]\nclass = CUMPLE EXPECTATIVAS", fillcolor="#e58139c0"] ;
9 -> 11 ;
12 [label="PromedioOtrosEmpleos <= 2.5\nentropy = 1.221\nsamples = 241\nvalue = [119, 11, 111]\nclass = CUMPLE EXPECTATIVAS", fillcolor="#e5813910"] ;
8 -> 12 ;
13 [label="entropy = 1.229\nsamples = 218\nvalue = [115, 11, 92]\nclass = CUMPLE EXPECTATIVAS", fillcolor="#e581392f"] ;
12 -> 13 ;
14 [label="entropy = 0.667\nsamples = 23\nvalue = [4, 0, 19]\nclass = NO CUMPLE EXPECTATIVAS", fillcolor="#8139e5c9"] ;
12 -> 14 ;
}